<mxfile host="app.diagrams.net" modified="2023-07-04T06:27:38.525Z" agent="Mozilla/5.0 (X11; Linux x86_64) AppleWebKit/537.36 (KHTML, like Gecko) Chrome/113.0.0.0 Safari/537.36" version="21.5.0" etag="duoqAKGDMENVi4zIVSto" type="gitlab">
  <diagram name="Страница 1" id="kut5K9ZTY2Iznj3_UupU">
    <mxGraphModel>
      <root>
        <mxCell id="0" />
        <mxCell id="1" parent="0" />
      </root>
    </mxGraphModel>
  </diagram>
</mxfile>
